<?xml version="1.0" encoding="UTF-8" standalone="no"?>
<!-- Created with Inkscape (http://www.inkscape.org/) -->

<svg
   xmlns:dc="http://purl.org/dc/elements/1.1/"
   xmlns:cc="http://creativecommons.org/ns#"
   xmlns:rdf="http://www.w3.org/1999/02/22-rdf-syntax-ns#"
   xmlns:svg="http://www.w3.org/2000/svg"
   xmlns="http://www.w3.org/2000/svg"
   xmlns:xlink="http://www.w3.org/1999/xlink"
   xmlns:sodipodi="http://sodipodi.sourceforge.net/DTD/sodipodi-0.dtd"
   xmlns:inkscape="http://www.inkscape.org/namespaces/inkscape"
   width="186.25"
   height="182.64999"
   viewBox="0 0 186.25 182.64999"
   id="svg2"
   version="1.1"
   inkscape:version="0.91 r13725"
   sodipodi:docname="selection-chain.svg"
   inkscape:export-filename="/Users/Mike/Documents/Simbox/Code/Research/NSB/nsb-bismuth-research/Assets/VR/UI/Images/selection-atom.png"
   inkscape:export-xdpi="300"
   inkscape:export-ydpi="300">
  <defs
     id="defs4" />
  <sodipodi:namedview
     id="base"
     pagecolor="#000000"
     bordercolor="#666666"
     borderopacity="1.0"
     inkscape:pageopacity="0"
     inkscape:pageshadow="2"
     inkscape:zoom="3.620915"
     inkscape:cx="94.60032"
     inkscape:cy="87.494308"
     inkscape:document-units="px"
     inkscape:current-layer="layer2"
     showgrid="false"
     units="px"
     fit-margin-top="0"
     fit-margin-left="0"
     fit-margin-right="0"
     fit-margin-bottom="-3.6"
     inkscape:window-width="1280"
     inkscape:window-height="720"
     inkscape:window-x="0"
     inkscape:window-y="1"
     inkscape:window-maximized="1" />
  <metadata
     id="metadata7">
    <rdf:RDF>
      <cc:Work
         rdf:about="">
        <dc:format>image/svg+xml</dc:format>
        <dc:type
           rdf:resource="http://purl.org/dc/dcmitype/StillImage" />
        <dc:title></dc:title>
      </cc:Work>
    </rdf:RDF>
  </metadata>
  <g
     inkscape:label="Layer 1"
     inkscape:groupmode="layer"
     id="layer1"
     transform="translate(-177.58928,-324.95146)"
     style="display:inline" />
  <g
     inkscape:groupmode="layer"
     id="layer2"
     inkscape:label="WhiteBorder"
     style="display:inline"
     transform="translate(-177.58928,-296.58929)">
    <image
       y="296.58929"
       x="177.58928"
       id="image3565"
       xlink:href="data:image/png;base64,iVBORw0KGgoAAAANSUhEUgAAAJUAAACVCAYAAABRorhPAAAABmJLR0QA/wD/AP+gvaeTAAAACXBI WXMAAAsTAAALEwEAmpwYAAAAB3RJTUUH4QgRDwMvQrkwGwAAAB1pVFh0Q29tbWVudAAAAAAAQ3Jl YXRlZCB3aXRoIEdJTVBkLmUHAAAM9UlEQVR42u2dbYxU1RnH/2dnEZhZWETbtOsXaRdMsCpf+mqI 1kJTdRWRmjZqjGn8XpuIYpoamppWa1+sRmzUtPaDXzSxXWgFEoSmKstqWlj6wQgUxhizCywM7OzM zuv994NndXbm3Hm9L+fce57khjh7vec85/zO8zznXSCmQnIJgKsAXCmfVQC+AOBzAC6TT0q+vgxA P4AKgKz8LQfgnHzOApgCcApAWj7HhBBzcSxbEROAUgC+CuB6ANcBuBbAMICEj8lWAZwAcBTABIB3 ALwnhMhZqMy1QjcA2Cj/XSctTdhSkYDtB7AHwNtCiJKFSl+QlgPYBGCLhClpQLZnAewD8DqAUSHE jIUqfJAWAbgdwD0AbgawxGB1CtJ6vSIBK8NKoDCtIfkEydPsQZxijn7kzynm2KOcJvkkyTW2tv2H aT3JUZLVjgEqZBlm3p1Cthu4qlLf9bb2vYfpVpKHOqqOcpFa61QudgrYIZIjlobeYdpAciwqIHkE 2BjJDZaOzmFaS3J3u6UcMd3bld0k11paWhfopSSfI1luGSOV5xjlsnBKc23ZZllel1p61EDdRXKy JUy5DONULk7ufDtwTZK8y1L0GUxDsofTHKZ8vGBqgCufaQeuUZJDcQfqDpLTTWEqzdE2vY7c4jTJ O+MIU5LkC81Nk2NhalaGjtMKrhdIJuMC1DDJibj05kLuLU6QHI56AYyQdA8OKkULVDflWmk6zpWJ 7KApyYeaTa9YNHy1WlWSW6OkaILkDhs7aRFrPU8yYTpQS0nusj07rXqIu0guNRWoAZJvutrj7LQF ykepZpuO1OwnOWAaUIMkD9r4Ses4a4zkoElAjVugjAFrQPfMJ0n+ywJlFFj7tR0klb28UQuUkWCN atkrbDZsYKvTCLB26JbRbRaoSIC1TZcM3kLSsUBFAiwn9CkdOTl8wQIVKbAuhDYJLXt6ExaoSII1 EUqP0G09VDV71kJlkFSzZ93iqxeDBmqzncuLjjSZK9wcFFBDyiXAdrWB2W5QvbphmuQVQUC108ZR sYqv3vA70bstULEE6x6/ErtUecqKXQIcLajUS5NPk1zpB1R/sFYq1tbqGa8TWavaim6LP1ZglUle 7WUCe21vz/YGSe71CqgNYbs9t0GUQqFw0lZ/4OW+0YsPjwV1rGEnQFlX7L+4HDM51muF3hpWBXZy Cpit/sDrYcRbKxXg6SsWLA2slfq0mbFuK/QGXWMpC5UW1upGt/f7mnzrJw0fz2e0VbxSqbxtYMUY 0Rhc6v1Bt/eFSwEMA/igHjohhAi6Itp9N+i8eamHznlvooMD4CohxIl2LdUD9X9jpWj9gE8NwwSL xXJBxc4D7RbCJao5Pp1chikupJOYcGZm5lEDY6vTJC9p53/colPFmQpVN9c7GBqwb2nH/d2jm89P p9OPu/2tWCy+oWMFmBAneaTTva1IXE5yTtcWRPJPqhYTBfdnTE9QMVsmr8VztVS3o+56M50CdCHE j6JqBYzpeDTysBjAHc2gavSPi5ZoX4Hvv//+E6a7QFMaigsPm93M2mKSWVNdi675LBQK/4jabIBC hSzJxaoXv23c9WYR6AUa6QLVt37dpHJ/tzSY5EWLbezisQtMp9OPz/9mamzowsXNqhb1nunjJibk s9dvTU1NPaaD1VMk/96n0MkXUgAuAOg3LXisL0wd81ybx17y1w44QemvyEsFwAohRG7e/X29HigW c0aY4pmZmbR1sp2B50k6jXz0S44+jamub+g6Lhkwwt8PDg6uikMl6+beXfj4Vi1U19qWasUDua4W qmuipFmpVNoKACdPnhwLE7j6lQfHjx//VTcN5MCBAy8bUvTXAICQV0pkASRMC9K7AcZPvdrJQ7Va 3drf3/8bP61uiMF6FcCyPgBr6oFiac4omE6dOvWLTt4/c+bMz7y2Wu1+L5FIPNVqCMCYIZ1SvkE9 AGtAcpPJo7zsQbxI/+OPP97eS/r333+/AIBjx479kh5JyOW/CSQfDDJTCw6MqVQeCgsokpydnR0P E+r5sm7293w+/0gnaWnQqH/cB2BVEAkXCoVMvdKJROKpd999969hWblUKvW1sHuazb4hhBDJZPLJ 2v9uEi85msTBqwTJVwHc5Weg58dIsFetMp/Pn0ilUqt1Gb6IQAfp1T4AKwNOVCkHDx4MxWIlk8lh C5SncpkgeRjAOr+U63TvHkm2k76XldqNvmGnr7GlOtzvt6XqJoNh9GBgxTNL1Qdg0JaDFQ9leZ8t Ayteh4Z9AJJxL4VisfiI6FAsO+59H6GKJ8II1HO53KMDAwNPeP1dG6gHH4/2ASj7agvbbNmpVKqj Gfzx8fFnvchfuVx+OMbdfz+kDNV9fb6kVC6nVdMKH3300ZO9tJIw58lMm6fzy1LV3xcYGFQBKdSR TE1NPRZmHgBg+/btImJQZUDywwhubmwpvU5m95p+VHydQrUP+wCcN12parW6tdM4KpFIPBVWoF0q ld6K8IDrOUFyH4DvRCEI1eEYxCgcxdijvm/2m26pdKu8+nRjOAV0rg/AZBRbjC6VGcOhh6k+AGlr qax4KCf7ABh/aZAJW99jJGmlpQryQiMvurNR6kyYJC6cpEFyKcmKSSeo1ALVMPKWyWR1hT8GY1QV kkv7hBBzAE6YokilUvlPs4pZsWLFgG4VVywWH4mJ6zsheQJIvha1E3+ttQqlLl4DPjtL4WjUmoxd IhyKTNRC9U5DEFaYtZXi4xDHzMzM74rF4gFjg3Q1HwcBA0/SM/lmrVYbRw33BAtP0hNC5AAcsfYk vKGP2neOHDli4jjbhORowenE/4xSRV68ePGnGvT6ft9pbEeS69atMzH0OKBS5iYTzlE3qffX6wK+ p59+WkuL5XKO+qcrXURNASwGMA1gQPe4ZH4ns87xiRdg6xpnKXSbBXC5EKK4wP3JH/aZ0otyG1CM 0rxfN2BmMpnjIVjsffNAqZS4r96mOeWCHVoI0O1148aDDAecckH1+fsWNOy6zC0HcAafXLcVydZv iuvrtOyDOrhfkU4RwOeFEDPzP9Tf5j4DYLfFonvxYodOrezZs+fPXkHskzvcXQuUW8Jborz7w2/J ZDI7qbH44NbbukN5l3SBVrqQubm5f8dI3TOSl+ZQCSFKAP6iCtAsMq1laGjo51HUyynNqer/ZckL XAP1GjM3DOADRcxlA3YNA/Ug5kMVaTgArhJCnGjH/UG+2GDWnNx5a63akFwu96iOgHZtpdT1vksF VCtlbrQBu+dBrW9BtZ9Busvnbuz2Y2MNg6H5jAUrALDmL23yKq2urVQ+o/rcoV4KZcRaq+5kfvlK GN3/ycnJwyR5+PDh3/rUMEZ6/WijtTJkC5eJFqtSqTykS8N1ijlvrVRNgWy01qp7mT9/KgqbNaR8 16uP7234tONYsKJsXR1HBdReL4m9mmTZWqtYu+wyya94ncgz1g3GOgZ81o+EVpI83RhZFi1YERJH vVT4DMmVfhF8t7VWsbRS9/qd6N8tWLEC6o0gEr6C5LTtDcait3eO5BVBEb1ZlQOX5RFWdI+jSnNu Q2ebgzaVL6pyUc2etWAZJNXsWTegXgrD/yZJHrXxVSTjqP+STIaVoWHVNSQWLKOBuiAXaYaasRGS jgUrEkA5Pa9A8DCD26J+B0sMgCLJbbpldIcFy2igduiY2QTJUQuWkUCNkkzomukkybcsWEYBtT+0 nl4HmR8kOW7BMgKoQySXmaLEoGoZsgVLK6DGSA6apswAyQNuGtmRd3+lyUg5Zb0sM7WVLCW5y00z O1fojzSZy6NcZbLUdPObIPm8q4p2dYO35a1ebTAvfyTZHyXfvtVt5N3GWb7HTw7Jh6Oq9G0kM+6b 3uzS5K7KtVJsZp0yJG+Lemta7ba6wVotT60TZTmvjktBpEi+1LQ4bKzVS+xEWb6pOLayO5VLkxf0 EPMWrgU9u3wrmKZJ3hl38z3UbM7QnjYjYcpn2tk5v5PkkG16n8H1A5JTLeGK2cFrTu58OzBNkfyh pUgN1kqSz6m22Mdt4LTFAGbtVvTnfNvoGTG41pLcberVtj725mplN8m1lpbOC3ijnElvTww9QZnq qzmarSzYaOnoHa6RZstp1IDpPZDqcr1ZMxnXZv14xOBaL3uK1U5rJOw7oZ3CbDcnNFalvutt7fsP 1xqSv1aeQtMJaD4dM+lyrGEnclrqt8bE+hGGw7UIwCYA9wL4Hupu/zJMigD2AHgFwN+EEGVTFYnS hYvLJWDfB7ABQNKAbM/ik4s7XwewUwhxMQp1EclrQeQitBsAbJT/XgdAh3VEFQATAPZLq/S26m4X C5UZkKUAfAPANyVg1wL4MgA/tyVVAfwPwFEJ0iEAY0KIXNTLO7YXGMltSasBfAnAlfL5IoDLAVwm n3kXukKWFQFckL/lAZyTzzSASQBp+ZwEcFwIkY9j2f4fapzkVo9Y61QAAAAASUVORK5CYII= "
       preserveAspectRatio="none"
       height="186.25"
       width="186.25" />
    <rect
       style="fill:none;fill-rule:evenodd;stroke:#ffffff;stroke-width:2;stroke-linecap:butt;stroke-linejoin:miter;stroke-miterlimit:4;stroke-dasharray:8,16;stroke-dashoffset:0;stroke-opacity:1"
       id="rect3572"
       width="134.67503"
       height="96.010757"
       x="203.87451"
       y="342.85846"
       inkscape:export-xdpi="300"
       inkscape:export-ydpi="300" />
  </g>
</svg>
