%YAML 1.1
%TAG !u! tag:unity3d.com,2011:
--- !u!114 &11400000
MonoBehaviour:
  m_ObjectHideFlags: 0
  m_CorrespondingSourceObject: {fileID: 0}
  m_PrefabInternal: {fileID: 0}
  m_GameObject: {fileID: 0}
  m_Enabled: 1
  m_EditorHideFlags: 0
  m_Script: {fileID: 11500000, guid: f74bc77fdedf15942982b596669a9679, type: 3}
  m_Name: Selection
  m_EditorClassIdentifier: 
  PrimaryColor: {r: 0, g: 0.6805771, b: 0.7924528, a: 1}
  PrimaryColorBody: {r: 0, g: 0.0726237, b: 0.11320752, a: 1}
